Suite/Test/Step Name,Browser,Description,Start time,End time,Duration,Status
WarmUp_TestCase2_Suite2,Chrome 78.0.3904.108,,2019-12-04 12:02:31,2019-12-04 12:05:24,2m - 53.044s,PASSED
,,,,,,
Test Cases/WarmUp-GiftBoxes,Chrome 78.0.3904.108,,2019-12-04 12:02:33,2019-12-04 12:05:24,2m - 51.721s,PASSED
openBrowser(URL),Chrome 78.0.3904.108,,2019-12-04 12:02:36,2019-12-04 12:03:03,27.259s,PASSED
"navigateToUrl(""https://penzeystestnc-production3.azurewebsites.net/"")",Chrome 78.0.3904.108,,2019-12-04 12:03:03,2019-12-04 12:03:03,0.003s,NOT_RUN
deleteAllCookies(),Chrome 78.0.3904.108,,2019-12-04 12:03:03,2019-12-04 12:03:05,1.903s,PASSED
refresh(),Chrome 78.0.3904.108,,2019-12-04 12:03:05,2019-12-04 12:03:08,3.447s,PASSED
maximizeWindow(),Chrome 78.0.3904.108,,2019-12-04 12:03:08,2019-12-04 12:03:11,2.237s,PASSED
"waitForPageLoad(8000, STOP_ON_FAILURE)",Chrome 78.0.3904.108,,2019-12-04 12:03:11,2019-12-04 12:03:11,0.140s,PASSED
delay(10),Chrome 78.0.3904.108,,2019-12-04 12:03:11,2019-12-04 12:03:21,10.040s,PASSED
"click(findTestObject(""Spices/Page_Spices at Penzeys/Ok_Button""))",Chrome 78.0.3904.108,,2019-12-04 12:03:21,2019-12-04 12:03:22,0.862s,PASSED
"waitForElementPresent(findTestObject(""GiftBoxes/Page_GiftBoxes at Penzeya/Page_Spices at Penzeys Gift Boxes/a_Gift Boxes""), 8000)",Chrome 78.0.3904.108,,2019-12-04 12:03:22,2019-12-04 12:03:22,0.234s,PASSED
delay(15),Chrome 78.0.3904.108,,2019-12-04 12:03:22,2019-12-04 12:03:37,15.005s,PASSED
"click(findTestObject(""GiftBoxes/Page_GiftBoxes at Penzeya/Page_Spices at Penzeys Gift Boxes/a_Gift Boxes""))",Chrome 78.0.3904.108,,2019-12-04 12:03:37,2019-12-04 12:03:42,4.750s,PASSED
delay(10),Chrome 78.0.3904.108,,2019-12-04 12:03:42,2019-12-04 12:03:52,10.067s,PASSED
"click(findTestObject(""Object Repository/GiftBoxes/Page_GiftBoxes at Penzeya/Page_Spices at Penzeys Gift Boxes/button_Penzeys Best""))",Chrome 78.0.3904.108,,2019-12-04 12:03:52,2019-12-04 12:03:52,0.546s,PASSED
delay(10),Chrome 78.0.3904.108,,2019-12-04 12:03:52,2019-12-04 12:04:02,10.004s,PASSED
"doubleClick(findTestObject(""Object Repository/GiftBoxes/Page_GiftBoxes at Penzeya/Page_Spices at Penzeys Gift Boxes/div_Welcome_overlayBackground""))",Chrome 78.0.3904.108,,2019-12-04 12:04:02,2019-12-04 12:04:02,0.143s,PASSED
delay(10),Chrome 78.0.3904.108,,2019-12-04 12:04:02,2019-12-04 12:04:12,10.006s,PASSED
"click(findTestObject(""Object Repository/GiftBoxes/Page_GiftBoxes at Penzeya/Page_Spices at Penzeys Gift Boxes/button_Bakers""))",Chrome 78.0.3904.108,,2019-12-04 12:04:12,2019-12-04 12:04:13,0.206s,PASSED
delay(5),Chrome 78.0.3904.108,,2019-12-04 12:04:13,2019-12-04 12:04:18,5.009s,PASSED
"click(findTestObject(""Object Repository/GiftBoxes/Page_GiftBoxes at Penzeya/Page_Spices at Penzeys Gift Boxes/button_Kitchen Classics""))",Chrome 78.0.3904.108,,2019-12-04 12:04:18,2019-12-04 12:04:18,0.107s,PASSED
delay(10),Chrome 78.0.3904.108,,2019-12-04 12:04:18,2019-12-04 12:04:28,10.006s,PASSED
"click(findTestObject(""Object Repository/GiftBoxes/Page_GiftBoxes at Penzeya/Page_Spices at Penzeys Gift Boxes/button_Salad Lovers""))",Chrome 78.0.3904.108,,2019-12-04 12:04:28,2019-12-04 12:04:28,0.099s,PASSED
delay(10),Chrome 78.0.3904.108,,2019-12-04 12:04:28,2019-12-04 12:04:38,10.005s,PASSED
"click(findTestObject(""Object Repository/GiftBoxes/Page_GiftBoxes at Penzeya/Page_Spices at Penzeys Gift Boxes/button_WeddingLove""))",Chrome 78.0.3904.108,,2019-12-04 12:04:38,2019-12-04 12:04:38,0.123s,PASSED
delay(15),Chrome 78.0.3904.108,,2019-12-04 12:04:38,2019-12-04 12:04:53,15.004s,PASSED
"click(findTestObject(""GiftBoxes/Page_GiftBoxes at Penzeya/Page_Spices at Penzeys Gift Boxes/button_Grill  Broil""))",Chrome 78.0.3904.108,,2019-12-04 12:04:53,2019-12-04 12:04:53,0.094s,PASSED
delay(10),Chrome 78.0.3904.108,,2019-12-04 12:04:53,2019-12-04 12:05:03,10.005s,PASSED
"click(findTestObject(""Object Repository/GiftBoxes/Page_GiftBoxes at Penzeya/Page_Spices at Penzeys Gift Boxes/button_Salt-free  Pepper Lovers""))",Chrome 78.0.3904.108,,2019-12-04 12:05:03,2019-12-04 12:05:03,0.094s,PASSED
delay(15),Chrome 78.0.3904.108,,2019-12-04 12:05:03,2019-12-04 12:05:18,15.004s,PASSED
"click(findTestObject(""Object Repository/GiftBoxes/Page_GiftBoxes at Penzeya/Page_Spices at Penzeys Gift Boxes/button_Minis""))",Chrome 78.0.3904.108,,2019-12-04 12:05:18,2019-12-04 12:05:18,0.111s,PASSED
delay(5),Chrome 78.0.3904.108,,2019-12-04 12:05:18,2019-12-04 12:05:23,5.003s,PASSED
"click(findTestObject(""Object Repository/GiftBoxes/Page_GiftBoxes at Penzeya/Page_Spices at Penzeys Gift Boxes/button_Bright. Bold. Unique.""))",Chrome 78.0.3904.108,,2019-12-04 12:05:23,2019-12-04 12:05:23,0.112s,PASSED
closeBrowser(),Chrome 78.0.3904.108,,2019-12-04 12:05:23,2019-12-04 12:05:24,0.971s,PASSED
