Suite/Test/Step Name,Browser,Description,Start time,End time,Duration,Status
WarmUp_AllNavigations_PenzeysApp,Chrome 77.0.3865.120,,2019-12-03 16:13:42,2019-12-03 16:36:09,22m - 26.688s,PASSED
,,,,,,
Test Cases/WarmUp-Spices,Chrome 77.0.3865.120,,2019-12-03 16:13:44,2019-12-03 16:24:38,10m - 53.794s,PASSED
openBrowser(URL),Chrome 77.0.3865.120,,2019-12-03 16:13:46,2019-12-03 16:14:09,23.170s,PASSED
"navigateToUrl(""https://www.penzeystest.penzeys.com/"")",Chrome 77.0.3865.120,,2019-12-03 16:14:09,2019-12-03 16:14:09,0.004s,NOT_RUN
deleteAllCookies(),Chrome 77.0.3865.120,,2019-12-03 16:14:09,2019-12-03 16:14:09,0.220s,PASSED
refresh(),Chrome 77.0.3865.120,,2019-12-03 16:14:09,2019-12-03 16:14:13,3.170s,PASSED
maximizeWindow(),Chrome 77.0.3865.120,,2019-12-03 16:14:13,2019-12-03 16:14:14,1.519s,PASSED
"waitForPageLoad(8000, STOP_ON_FAILURE)",Chrome 77.0.3865.120,,2019-12-03 16:14:14,2019-12-03 16:14:15,0.390s,PASSED
delay(5),Chrome 77.0.3865.120,,2019-12-03 16:14:15,2019-12-03 16:14:20,5.140s,PASSED
"click(findTestObject(""Spices/Page_Spices at Penzeys/Ok_Button""))",Chrome 77.0.3865.120,,2019-12-03 16:14:20,2019-12-03 16:14:23,3.047s,PASSED
"waitForElementPresent(findTestObject(""Spices/Page_Spices at Penzeys/Click_Spices""), 8000)",Chrome 77.0.3865.120,,2019-12-03 16:14:23,2019-12-03 16:14:23,0.675s,PASSED
delay(15),Chrome 77.0.3865.120,,2019-12-03 16:14:23,2019-12-03 16:14:38,15.005s,PASSED
"click(findTestObject(""Spices/Page_Spices at Penzeys/Click_Spices""))",Chrome 77.0.3865.120,,2019-12-03 16:14:38,2019-12-03 16:14:56,17.188s,PASSED
"waitForElementPresent(findTestObject(""Spices/Page_Spices at Penzeys/button_Most Popular""), 8000)",Chrome 77.0.3865.120,,2019-12-03 16:14:56,2019-12-03 16:14:56,0.397s,PASSED
delay(15),Chrome 77.0.3865.120,,2019-12-03 16:14:56,2019-12-03 16:15:11,15.005s,PASSED
"click(findTestObject(""Spices/Page_Spices at Penzeys/button_Most Popular""))",Chrome 77.0.3865.120,,2019-12-03 16:15:11,2019-12-03 16:15:12,0.918s,PASSED
"waitForElementPresent(findTestObject(""Spices/Page_Spices at Penzeys/button_Baking""), 15000)",Chrome 77.0.3865.120,,2019-12-03 16:15:12,2019-12-03 16:15:13,0.851s,PASSED
delay(15),Chrome 77.0.3865.120,,2019-12-03 16:15:13,2019-12-03 16:15:28,15.011s,PASSED
"click(findTestObject(""Object Repository/Spices/Page_Spices at Penzeys/button_Baking""))",Chrome 77.0.3865.120,,2019-12-03 16:15:28,2019-12-03 16:15:32,3.963s,PASSED
"waitForElementPresent(findTestObject(""Spices/Page_Spices at Penzeys/button_Chili""), 8000)",Chrome 77.0.3865.120,,2019-12-03 16:15:32,2019-12-03 16:15:32,0.234s,PASSED
delay(15),Chrome 77.0.3865.120,,2019-12-03 16:15:32,2019-12-03 16:15:47,15.005s,PASSED
"click(findTestObject(""Object Repository/Spices/Page_Spices at Penzeys/button_Chili""))",Chrome 77.0.3865.120,,2019-12-03 16:15:47,2019-12-03 16:15:48,0.624s,PASSED
"waitForElementPresent(findTestObject(""Spices/Page_Spices at Penzeys/button_Cinnamon""), 8000)",Chrome 77.0.3865.120,,2019-12-03 16:15:48,2019-12-03 16:15:48,0.610s,PASSED
delay(15),Chrome 77.0.3865.120,,2019-12-03 16:15:48,2019-12-03 16:16:03,15.004s,PASSED
"click(findTestObject(""Object Repository/Spices/Page_Spices at Penzeys/button_Cinnamon""))",Chrome 77.0.3865.120,,2019-12-03 16:16:03,2019-12-03 16:16:03,0.137s,PASSED
"waitForElementPresent(findTestObject(""Spices/Page_Spices at Penzeys/button_Curries""), 8000)",Chrome 77.0.3865.120,,2019-12-03 16:16:03,2019-12-03 16:16:03,0.041s,PASSED
delay(15),Chrome 77.0.3865.120,,2019-12-03 16:16:03,2019-12-03 16:16:18,15.004s,PASSED
"click(findTestObject(""Object Repository/Spices/Page_Spices at Penzeys/button_Curries""))",Chrome 77.0.3865.120,,2019-12-03 16:16:18,2019-12-03 16:16:19,0.153s,PASSED
"waitForElementPresent(findTestObject(""Spices/Page_Spices at Penzeys/button_Grilling""), 8000)",Chrome 77.0.3865.120,,2019-12-03 16:16:19,2019-12-03 16:16:19,0.088s,PASSED
delay(15),Chrome 77.0.3865.120,,2019-12-03 16:16:19,2019-12-03 16:16:34,15.006s,PASSED
"click(findTestObject(""Object Repository/Spices/Page_Spices at Penzeys/button_Grilling""))",Chrome 77.0.3865.120,,2019-12-03 16:16:34,2019-12-03 16:16:35,1.494s,PASSED
"waitForElementPresent(findTestObject(""Spices/Page_Spices at Penzeys/button_Pepper""), 8000)",Chrome 77.0.3865.120,,2019-12-03 16:16:35,2019-12-03 16:16:35,0.213s,PASSED
delay(15),Chrome 77.0.3865.120,,2019-12-03 16:16:35,2019-12-03 16:16:50,15.004s,PASSED
"click(findTestObject(""Object Repository/Spices/Page_Spices at Penzeys/button_Pepper""))",Chrome 77.0.3865.120,,2019-12-03 16:16:50,2019-12-03 16:16:51,0.243s,PASSED
"waitForElementPresent(findTestObject(""Spices/Page_Spices at Penzeys/button_Salad""), 8000)",Chrome 77.0.3865.120,,2019-12-03 16:16:51,2019-12-03 16:16:51,0.066s,PASSED
delay(15),Chrome 77.0.3865.120,,2019-12-03 16:16:51,2019-12-03 16:17:06,15.006s,PASSED
"click(findTestObject(""Object Repository/Spices/Page_Spices at Penzeys/button_Salad""))",Chrome 77.0.3865.120,,2019-12-03 16:17:06,2019-12-03 16:17:07,0.962s,PASSED
"waitForElementPresent(findTestObject(""Spices/Page_Spices at Penzeys/button_Salt Free""), 8000)",Chrome 77.0.3865.120,,2019-12-03 16:17:07,2019-12-03 16:17:07,0.128s,PASSED
delay(15),Chrome 77.0.3865.120,,2019-12-03 16:17:07,2019-12-03 16:17:22,15.004s,PASSED
"click(findTestObject(""Object Repository/Spices/Page_Spices at Penzeys/button_Salt Free""))",Chrome 77.0.3865.120,,2019-12-03 16:17:22,2019-12-03 16:17:22,0.128s,PASSED
"waitForElementPresent(findTestObject(""Spices/Page_Spices at Penzeys/button_Taco""), 8000)",Chrome 77.0.3865.120,,2019-12-03 16:17:22,2019-12-03 16:17:22,0.040s,PASSED
delay(15),Chrome 77.0.3865.120,,2019-12-03 16:17:22,2019-12-03 16:17:37,15.005s,PASSED
"click(findTestObject(""Object Repository/Spices/Page_Spices at Penzeys/button_Taco""))",Chrome 77.0.3865.120,,2019-12-03 16:17:37,2019-12-03 16:17:37,0.166s,PASSED
"waitForElementPresent(findTestObject(""Spices/Page_Spices at Penzeys/button_Vanilla""), 8000)",Chrome 77.0.3865.120,,2019-12-03 16:17:37,2019-12-03 16:17:37,0.036s,PASSED
delay(15),Chrome 77.0.3865.120,,2019-12-03 16:17:37,2019-12-03 16:17:52,15.005s,PASSED
"click(findTestObject(""Object Repository/Spices/Page_Spices at Penzeys/button_Vanilla""))",Chrome 77.0.3865.120,,2019-12-03 16:17:52,2019-12-03 16:17:52,0.164s,PASSED
"waitForElementPresent(findTestObject(""Spices/Page_Spices at Penzeys/button_A""), 8000)",Chrome 77.0.3865.120,,2019-12-03 16:17:52,2019-12-03 16:17:52,0.135s,PASSED
delay(15),Chrome 77.0.3865.120,,2019-12-03 16:17:52,2019-12-03 16:18:07,15.004s,PASSED
"click(findTestObject(""Object Repository/Spices/Page_Spices at Penzeys/button_A""))",Chrome 77.0.3865.120,,2019-12-03 16:18:07,2019-12-03 16:18:08,0.220s,PASSED
"waitForElementPresent(findTestObject(""Spices/Page_Spices at Penzeys/button_B""), 8000)",Chrome 77.0.3865.120,,2019-12-03 16:18:08,2019-12-03 16:18:08,0.034s,PASSED
delay(15),Chrome 77.0.3865.120,,2019-12-03 16:18:08,2019-12-03 16:18:23,15.004s,PASSED
"click(findTestObject(""Object Repository/Spices/Page_Spices at Penzeys/button_B""))",Chrome 77.0.3865.120,,2019-12-03 16:18:23,2019-12-03 16:18:23,0.269s,PASSED
"waitForElementPresent(findTestObject(""Spices/Page_Spices at Penzeys/button_C""), 8000)",Chrome 77.0.3865.120,,2019-12-03 16:18:23,2019-12-03 16:18:23,0.040s,PASSED
delay(15),Chrome 77.0.3865.120,,2019-12-03 16:18:23,2019-12-03 16:18:38,15.004s,PASSED
"click(findTestObject(""Object Repository/Spices/Page_Spices at Penzeys/button_C""))",Chrome 77.0.3865.120,,2019-12-03 16:18:38,2019-12-03 16:18:38,0.105s,PASSED
"waitForElementPresent(findTestObject(""Spices/Page_Spices at Penzeys/button_D""), 8000)",Chrome 77.0.3865.120,,2019-12-03 16:18:38,2019-12-03 16:18:38,0.029s,PASSED
delay(15),Chrome 77.0.3865.120,,2019-12-03 16:18:38,2019-12-03 16:18:53,15.009s,PASSED
"click(findTestObject(""Object Repository/Spices/Page_Spices at Penzeys/button_D""))",Chrome 77.0.3865.120,,2019-12-03 16:18:53,2019-12-03 16:18:53,0.166s,PASSED
"waitForElementPresent(findTestObject(""Spices/Page_Spices at Penzeys/button_E""), 8000)",Chrome 77.0.3865.120,,2019-12-03 16:18:53,2019-12-03 16:18:53,0.030s,PASSED
delay(15),Chrome 77.0.3865.120,,2019-12-03 16:18:53,2019-12-03 16:19:08,15.004s,PASSED
"click(findTestObject(""Object Repository/Spices/Page_Spices at Penzeys/button_E""))",Chrome 77.0.3865.120,,2019-12-03 16:19:08,2019-12-03 16:19:08,0.106s,PASSED
"waitForElementPresent(findTestObject(""Spices/Page_Spices at Penzeys/button_F""), 8000)",Chrome 77.0.3865.120,,2019-12-03 16:19:08,2019-12-03 16:19:08,0.034s,PASSED
delay(15),Chrome 77.0.3865.120,,2019-12-03 16:19:08,2019-12-03 16:19:24,15.005s,PASSED
"click(findTestObject(""Object Repository/Spices/Page_Spices at Penzeys/button_F""))",Chrome 77.0.3865.120,,2019-12-03 16:19:24,2019-12-03 16:19:24,0.092s,PASSED
"waitForElementPresent(findTestObject(""Spices/Page_Spices at Penzeys/button_G""), 8000)",Chrome 77.0.3865.120,,2019-12-03 16:19:24,2019-12-03 16:19:24,0.034s,PASSED
delay(15),Chrome 77.0.3865.120,,2019-12-03 16:19:24,2019-12-03 16:19:39,15.005s,PASSED
"click(findTestObject(""Object Repository/Spices/Page_Spices at Penzeys/button_G""))",Chrome 77.0.3865.120,,2019-12-03 16:19:39,2019-12-03 16:19:39,0.103s,PASSED
"waitForElementPresent(findTestObject(""Spices/Page_Spices at Penzeys/button_H""), 8000)",Chrome 77.0.3865.120,,2019-12-03 16:19:39,2019-12-03 16:19:39,0.038s,PASSED
delay(15),Chrome 77.0.3865.120,,2019-12-03 16:19:39,2019-12-03 16:19:54,15.005s,PASSED
"click(findTestObject(""Object Repository/Spices/Page_Spices at Penzeys/button_H""))",Chrome 77.0.3865.120,,2019-12-03 16:19:54,2019-12-03 16:19:54,0.109s,PASSED
"waitForElementPresent(findTestObject(""Spices/Page_Spices at Penzeys/button_I""), 8000)",Chrome 77.0.3865.120,,2019-12-03 16:19:54,2019-12-03 16:19:54,0.038s,PASSED
delay(15),Chrome 77.0.3865.120,,2019-12-03 16:19:54,2019-12-03 16:20:09,15.005s,PASSED
"click(findTestObject(""Object Repository/Spices/Page_Spices at Penzeys/button_I""))",Chrome 77.0.3865.120,,2019-12-03 16:20:09,2019-12-03 16:20:09,0.123s,PASSED
"waitForElementPresent(findTestObject(""Spices/Page_Spices at Penzeys/button_J""), 8000)",Chrome 77.0.3865.120,,2019-12-03 16:20:09,2019-12-03 16:20:09,0.030s,PASSED
delay(15),Chrome 77.0.3865.120,,2019-12-03 16:20:09,2019-12-03 16:20:24,15.004s,PASSED
"click(findTestObject(""Object Repository/Spices/Page_Spices at Penzeys/button_J""))",Chrome 77.0.3865.120,,2019-12-03 16:20:24,2019-12-03 16:20:24,0.118s,PASSED
"waitForElementPresent(findTestObject(""Spices/Page_Spices at Penzeys/button_K""), 8000)",Chrome 77.0.3865.120,,2019-12-03 16:20:24,2019-12-03 16:20:24,0.045s,PASSED
delay(15),Chrome 77.0.3865.120,,2019-12-03 16:20:24,2019-12-03 16:20:39,15.003s,PASSED
"click(findTestObject(""Object Repository/Spices/Page_Spices at Penzeys/button_K""))",Chrome 77.0.3865.120,,2019-12-03 16:20:39,2019-12-03 16:20:39,0.172s,PASSED
"waitForElementPresent(findTestObject(""Spices/Page_Spices at Penzeys/button_L""), 8000)",Chrome 77.0.3865.120,,2019-12-03 16:20:39,2019-12-03 16:20:40,0.090s,PASSED
delay(15),Chrome 77.0.3865.120,,2019-12-03 16:20:40,2019-12-03 16:20:55,15.005s,PASSED
"click(findTestObject(""Object Repository/Spices/Page_Spices at Penzeys/button_L""))",Chrome 77.0.3865.120,,2019-12-03 16:20:55,2019-12-03 16:20:55,0.107s,PASSED
"waitForElementPresent(findTestObject(""Spices/Page_Spices at Penzeys/button_M""), 8000)",Chrome 77.0.3865.120,,2019-12-03 16:20:55,2019-12-03 16:20:55,0.036s,PASSED
delay(15),Chrome 77.0.3865.120,,2019-12-03 16:20:55,2019-12-03 16:21:10,15.003s,PASSED
"click(findTestObject(""Object Repository/Spices/Page_Spices at Penzeys/button_M""))",Chrome 77.0.3865.120,,2019-12-03 16:21:10,2019-12-03 16:21:10,0.217s,PASSED
"waitForElementPresent(findTestObject(""Spices/Page_Spices at Penzeys/button_N""), 8000)",Chrome 77.0.3865.120,,2019-12-03 16:21:10,2019-12-03 16:21:10,0.096s,PASSED
delay(15),Chrome 77.0.3865.120,,2019-12-03 16:21:10,2019-12-03 16:21:25,15.003s,PASSED
"click(findTestObject(""Object Repository/Spices/Page_Spices at Penzeys/button_N""))",Chrome 77.0.3865.120,,2019-12-03 16:21:25,2019-12-03 16:21:25,0.099s,PASSED
"waitForElementPresent(findTestObject(""Spices/Page_Spices at Penzeys/button_O""), 8000)",Chrome 77.0.3865.120,,2019-12-03 16:21:25,2019-12-03 16:21:25,0.032s,PASSED
delay(15),Chrome 77.0.3865.120,,2019-12-03 16:21:25,2019-12-03 16:21:40,15.003s,PASSED
"click(findTestObject(""Object Repository/Spices/Page_Spices at Penzeys/button_O""))",Chrome 77.0.3865.120,,2019-12-03 16:21:40,2019-12-03 16:21:40,0.094s,PASSED
"waitForElementPresent(findTestObject(""Spices/Page_Spices at Penzeys/button_P""), 8000)",Chrome 77.0.3865.120,,2019-12-03 16:21:40,2019-12-03 16:21:40,0.081s,PASSED
delay(15),Chrome 77.0.3865.120,,2019-12-03 16:21:40,2019-12-03 16:21:55,15.004s,PASSED
"click(findTestObject(""Object Repository/Spices/Page_Spices at Penzeys/button_P""))",Chrome 77.0.3865.120,,2019-12-03 16:21:55,2019-12-03 16:21:55,0.121s,PASSED
"waitForElementPresent(findTestObject(""Spices/Page_Spices at Penzeys/button_Q""), 8000)",Chrome 77.0.3865.120,,2019-12-03 16:21:55,2019-12-03 16:21:55,0.042s,PASSED
delay(15),Chrome 77.0.3865.120,,2019-12-03 16:21:55,2019-12-03 16:22:10,15.003s,PASSED
"click(findTestObject(""Object Repository/Spices/Page_Spices at Penzeys/button_Q""))",Chrome 77.0.3865.120,,2019-12-03 16:22:10,2019-12-03 16:22:11,0.223s,PASSED
"waitForElementPresent(findTestObject(""Spices/Page_Spices at Penzeys/button_R""), 8000)",Chrome 77.0.3865.120,,2019-12-03 16:22:11,2019-12-03 16:22:11,0.036s,PASSED
delay(15),Chrome 77.0.3865.120,,2019-12-03 16:22:11,2019-12-03 16:22:26,15.003s,PASSED
"click(findTestObject(""Object Repository/Spices/Page_Spices at Penzeys/button_R""))",Chrome 77.0.3865.120,,2019-12-03 16:22:26,2019-12-03 16:22:26,0.151s,PASSED
"waitForElementPresent(findTestObject(""Spices/Page_Spices at Penzeys/button_S""), 8000)",Chrome 77.0.3865.120,,2019-12-03 16:22:26,2019-12-03 16:22:26,0.047s,PASSED
delay(15),Chrome 77.0.3865.120,,2019-12-03 16:22:26,2019-12-03 16:22:41,15.003s,PASSED
"click(findTestObject(""Object Repository/Spices/Page_Spices at Penzeys/button_S""))",Chrome 77.0.3865.120,,2019-12-03 16:22:41,2019-12-03 16:22:41,0.290s,PASSED
"waitForElementPresent(findTestObject(""Spices/Page_Spices at Penzeys/button_T""), 8000)",Chrome 77.0.3865.120,,2019-12-03 16:22:41,2019-12-03 16:22:41,0.041s,PASSED
delay(15),Chrome 77.0.3865.120,,2019-12-03 16:22:41,2019-12-03 16:22:56,15.008s,PASSED
"click(findTestObject(""Object Repository/Spices/Page_Spices at Penzeys/button_T""))",Chrome 77.0.3865.120,,2019-12-03 16:22:56,2019-12-03 16:22:56,0.145s,PASSED
"waitForElementPresent(findTestObject(""Spices/Page_Spices at Penzeys/button_U""), 8000)",Chrome 77.0.3865.120,,2019-12-03 16:22:56,2019-12-03 16:22:56,0.040s,PASSED
delay(15),Chrome 77.0.3865.120,,2019-12-03 16:22:56,2019-12-03 16:23:11,15.003s,PASSED
"click(findTestObject(""Object Repository/Spices/Page_Spices at Penzeys/button_U""))",Chrome 77.0.3865.120,,2019-12-03 16:23:11,2019-12-03 16:23:12,0.110s,PASSED
"waitForElementPresent(findTestObject(""Spices/Page_Spices at Penzeys/button_V""), 8000)",Chrome 77.0.3865.120,,2019-12-03 16:23:12,2019-12-03 16:23:12,0.032s,PASSED
delay(15),Chrome 77.0.3865.120,,2019-12-03 16:23:12,2019-12-03 16:23:27,15.003s,PASSED
"click(findTestObject(""Object Repository/Spices/Page_Spices at Penzeys/button_V""))",Chrome 77.0.3865.120,,2019-12-03 16:23:27,2019-12-03 16:23:27,0.146s,PASSED
"waitForElementPresent(findTestObject(""Spices/Page_Spices at Penzeys/button_W""), 8000)",Chrome 77.0.3865.120,,2019-12-03 16:23:27,2019-12-03 16:23:27,0.071s,PASSED
delay(15),Chrome 77.0.3865.120,,2019-12-03 16:23:27,2019-12-03 16:23:42,15.006s,PASSED
"click(findTestObject(""Object Repository/Spices/Page_Spices at Penzeys/button_W""))",Chrome 77.0.3865.120,,2019-12-03 16:23:42,2019-12-03 16:23:42,0.112s,PASSED
"waitForElementPresent(findTestObject(""Spices/Page_Spices at Penzeys/button_X""), 8000)",Chrome 77.0.3865.120,,2019-12-03 16:23:42,2019-12-03 16:23:42,0.054s,PASSED
delay(15),Chrome 77.0.3865.120,,2019-12-03 16:23:42,2019-12-03 16:23:57,15.003s,PASSED
"click(findTestObject(""Object Repository/Spices/Page_Spices at Penzeys/button_X""))",Chrome 77.0.3865.120,,2019-12-03 16:23:57,2019-12-03 16:23:57,0.103s,PASSED
"waitForElementPresent(findTestObject(""Spices/Page_Spices at Penzeys/button_Y""), 8000)",Chrome 77.0.3865.120,,2019-12-03 16:23:57,2019-12-03 16:23:57,0.039s,PASSED
delay(15),Chrome 77.0.3865.120,,2019-12-03 16:23:57,2019-12-03 16:24:12,15.007s,PASSED
"click(findTestObject(""Object Repository/Spices/Page_Spices at Penzeys/button_Y""))",Chrome 77.0.3865.120,,2019-12-03 16:24:12,2019-12-03 16:24:13,0.808s,PASSED
"waitForElementPresent(findTestObject(""Spices/Page_Spices at Penzeys/button_Z""), 8000)",Chrome 77.0.3865.120,,2019-12-03 16:24:13,2019-12-03 16:24:13,0.232s,PASSED
delay(15),Chrome 77.0.3865.120,,2019-12-03 16:24:13,2019-12-03 16:24:28,15.004s,PASSED
"click(findTestObject(""Object Repository/Spices/Page_Spices at Penzeys/button_Z""))",Chrome 77.0.3865.120,,2019-12-03 16:24:28,2019-12-03 16:24:28,0.196s,PASSED
closeBrowser(),Chrome 77.0.3865.120,,2019-12-03 16:24:28,2019-12-03 16:24:38,9.118s,PASSED
,,,,,,
Test Cases/WarmUp-GiftBoxes,Chrome 77.0.3865.120,,2019-12-03 16:24:38,2019-12-03 16:27:09,2m - 31.822s,PASSED
openBrowser(URL),Chrome 77.0.3865.120,,2019-12-03 16:24:38,2019-12-03 16:24:51,13.023s,PASSED
"navigateToUrl(""https://penzeystestnc-production3.azurewebsites.net/"")",Chrome 77.0.3865.120,,2019-12-03 16:24:51,2019-12-03 16:24:51,0.001s,NOT_RUN
deleteAllCookies(),Chrome 77.0.3865.120,,2019-12-03 16:24:51,2019-12-03 16:24:52,0.290s,PASSED
refresh(),Chrome 77.0.3865.120,,2019-12-03 16:24:52,2019-12-03 16:24:52,0.840s,PASSED
maximizeWindow(),Chrome 77.0.3865.120,,2019-12-03 16:24:52,2019-12-03 16:24:54,1.420s,PASSED
"waitForPageLoad(8000, STOP_ON_FAILURE)",Chrome 77.0.3865.120,,2019-12-03 16:24:54,2019-12-03 16:24:54,0.252s,PASSED
delay(10),Chrome 77.0.3865.120,,2019-12-03 16:24:54,2019-12-03 16:25:04,10.002s,PASSED
"click(findTestObject(""Spices/Page_Spices at Penzeys/Ok_Button""))",Chrome 77.0.3865.120,,2019-12-03 16:25:04,2019-12-03 16:25:04,0.131s,PASSED
"waitForElementPresent(findTestObject(""GiftBoxes/Page_GiftBoxes at Penzeya/Page_Spices at Penzeys Gift Boxes/a_Gift Boxes""), 8000)",Chrome 77.0.3865.120,,2019-12-03 16:25:04,2019-12-03 16:25:04,0.064s,PASSED
delay(15),Chrome 77.0.3865.120,,2019-12-03 16:25:04,2019-12-03 16:25:19,15.003s,PASSED
"click(findTestObject(""GiftBoxes/Page_GiftBoxes at Penzeya/Page_Spices at Penzeys Gift Boxes/a_Gift Boxes""))",Chrome 77.0.3865.120,,2019-12-03 16:25:19,2019-12-03 16:25:22,2.946s,PASSED
delay(10),Chrome 77.0.3865.120,,2019-12-03 16:25:22,2019-12-03 16:25:32,10.002s,PASSED
"click(findTestObject(""Object Repository/GiftBoxes/Page_GiftBoxes at Penzeya/Page_Spices at Penzeys Gift Boxes/button_Penzeys Best""))",Chrome 77.0.3865.120,,2019-12-03 16:25:32,2019-12-03 16:25:33,0.939s,PASSED
delay(10),Chrome 77.0.3865.120,,2019-12-03 16:25:33,2019-12-03 16:25:43,10.003s,PASSED
"doubleClick(findTestObject(""Object Repository/GiftBoxes/Page_GiftBoxes at Penzeya/Page_Spices at Penzeys Gift Boxes/div_Welcome_overlayBackground""))",Chrome 77.0.3865.120,,2019-12-03 16:25:43,2019-12-03 16:25:43,0.307s,PASSED
delay(10),Chrome 77.0.3865.120,,2019-12-03 16:25:43,2019-12-03 16:25:53,10.004s,PASSED
"click(findTestObject(""Object Repository/GiftBoxes/Page_GiftBoxes at Penzeya/Page_Spices at Penzeys Gift Boxes/button_Bakers""))",Chrome 77.0.3865.120,,2019-12-03 16:25:53,2019-12-03 16:25:54,0.152s,PASSED
delay(5),Chrome 77.0.3865.120,,2019-12-03 16:25:54,2019-12-03 16:25:59,5.003s,PASSED
"click(findTestObject(""Object Repository/GiftBoxes/Page_GiftBoxes at Penzeya/Page_Spices at Penzeys Gift Boxes/button_Kitchen Classics""))",Chrome 77.0.3865.120,,2019-12-03 16:25:59,2019-12-03 16:25:59,0.110s,PASSED
delay(10),Chrome 77.0.3865.120,,2019-12-03 16:25:59,2019-12-03 16:26:09,10.002s,PASSED
"click(findTestObject(""Object Repository/GiftBoxes/Page_GiftBoxes at Penzeya/Page_Spices at Penzeys Gift Boxes/button_Salad Lovers""))",Chrome 77.0.3865.120,,2019-12-03 16:26:09,2019-12-03 16:26:09,0.103s,PASSED
delay(10),Chrome 77.0.3865.120,,2019-12-03 16:26:09,2019-12-03 16:26:19,10.004s,PASSED
"click(findTestObject(""Object Repository/GiftBoxes/Page_GiftBoxes at Penzeya/Page_Spices at Penzeys Gift Boxes/button_WeddingLove""))",Chrome 77.0.3865.120,,2019-12-03 16:26:19,2019-12-03 16:26:19,0.093s,PASSED
delay(15),Chrome 77.0.3865.120,,2019-12-03 16:26:19,2019-12-03 16:26:34,15.005s,PASSED
"click(findTestObject(""GiftBoxes/Page_GiftBoxes at Penzeya/Page_Spices at Penzeys Gift Boxes/button_Grill  Broil""))",Chrome 77.0.3865.120,,2019-12-03 16:26:34,2019-12-03 16:26:34,0.117s,PASSED
delay(10),Chrome 77.0.3865.120,,2019-12-03 16:26:34,2019-12-03 16:26:44,10.004s,PASSED
"click(findTestObject(""Object Repository/GiftBoxes/Page_GiftBoxes at Penzeya/Page_Spices at Penzeys Gift Boxes/button_Salt-free  Pepper Lovers""))",Chrome 77.0.3865.120,,2019-12-03 16:26:44,2019-12-03 16:26:46,2.262s,PASSED
delay(15),Chrome 77.0.3865.120,,2019-12-03 16:26:46,2019-12-03 16:27:01,15.005s,PASSED
"click(findTestObject(""Object Repository/GiftBoxes/Page_GiftBoxes at Penzeya/Page_Spices at Penzeys Gift Boxes/button_Minis""))",Chrome 77.0.3865.120,,2019-12-03 16:27:01,2019-12-03 16:27:02,0.171s,PASSED
delay(5),Chrome 77.0.3865.120,,2019-12-03 16:27:02,2019-12-03 16:27:07,5.006s,PASSED
"click(findTestObject(""Object Repository/GiftBoxes/Page_GiftBoxes at Penzeya/Page_Spices at Penzeys Gift Boxes/button_Bright. Bold. Unique.""))",Chrome 77.0.3865.120,,2019-12-03 16:27:07,2019-12-03 16:27:07,0.153s,PASSED
closeBrowser(),Chrome 77.0.3865.120,,2019-12-03 16:27:07,2019-12-03 16:27:09,2.689s,PASSED
,,,,,,
Test Cases/WarmUp-FunStuff,Chrome 77.0.3865.120,,2019-12-03 16:27:09,2019-12-03 16:28:51,1m - 41.365s,PASSED
openBrowser(URL),Chrome 77.0.3865.120,,2019-12-03 16:27:10,2019-12-03 16:27:24,14.002s,PASSED
deleteAllCookies(),Chrome 77.0.3865.120,,2019-12-03 16:27:24,2019-12-03 16:27:24,0.397s,PASSED
refresh(),Chrome 77.0.3865.120,,2019-12-03 16:27:24,2019-12-03 16:27:27,2.227s,PASSED
maximizeWindow(),Chrome 77.0.3865.120,,2019-12-03 16:27:27,2019-12-03 16:27:28,1.293s,PASSED
"waitForPageLoad(8000, STOP_ON_FAILURE)",Chrome 77.0.3865.120,,2019-12-03 16:27:28,2019-12-03 16:27:28,0.026s,PASSED
delay(5),Chrome 77.0.3865.120,,2019-12-03 16:27:28,2019-12-03 16:27:33,5.002s,PASSED
"click(findTestObject(""Spices/Page_Spices at Penzeys/Ok_Button""))",Chrome 77.0.3865.120,,2019-12-03 16:27:33,2019-12-03 16:27:34,0.935s,PASSED
"waitForElementPresent(findTestObject(""FunStuff/Page_FunStuff at Penzeys/Page_Spices at Penzeys Fun Stuff/a_Fun Stuff""), 8000)",Chrome 77.0.3865.120,,2019-12-03 16:27:34,2019-12-03 16:27:34,0.076s,PASSED
delay(5),Chrome 77.0.3865.120,,2019-12-03 16:27:34,2019-12-03 16:27:39,5.004s,PASSED
"click(findTestObject(""FunStuff/Page_FunStuff at Penzeys/Page_Spices at Penzeys Fun Stuff/a_Fun Stuff""))",Chrome 77.0.3865.120,,2019-12-03 16:27:39,2019-12-03 16:27:44,4.908s,PASSED
delay(5),Chrome 77.0.3865.120,,2019-12-03 16:27:44,2019-12-03 16:27:49,5.003s,PASSED
"click(findTestObject(""FunStuff/Page_FunStuff at Penzeys/Page_Spices at Penzeys Fun Stuff/button_TowelsSuper-hero Capes""))",Chrome 77.0.3865.120,,2019-12-03 16:27:49,2019-12-03 16:27:50,0.946s,PASSED
delay(5),Chrome 77.0.3865.120,,2019-12-03 16:27:50,2019-12-03 16:27:55,5.004s,PASSED
"click(findTestObject(""FunStuff/Page_FunStuff at Penzeys/Page_Spices at Penzeys Fun Stuff/button_Mills and Shakers""))",Chrome 77.0.3865.120,,2019-12-03 16:27:55,2019-12-03 16:27:56,0.985s,PASSED
delay(5),Chrome 77.0.3865.120,,2019-12-03 16:27:56,2019-12-03 16:28:01,5.002s,PASSED
"click(findTestObject(""FunStuff/Page_FunStuff at Penzeys/Page_Spices at Penzeys Fun Stuff/button_Mugs""))",Chrome 77.0.3865.120,,2019-12-03 16:28:01,2019-12-03 16:28:02,1.724s,PASSED
delay(5),Chrome 77.0.3865.120,,2019-12-03 16:28:02,2019-12-03 16:28:07,5.003s,PASSED
"click(findTestObject(""FunStuff/Page_FunStuff at Penzeys/Page_Spices at Penzeys Fun Stuff/button_Empty Jars""))",Chrome 77.0.3865.120,,2019-12-03 16:28:07,2019-12-03 16:28:08,0.133s,PASSED
delay(5),Chrome 77.0.3865.120,,2019-12-03 16:28:08,2019-12-03 16:28:13,5.003s,PASSED
"click(findTestObject(""FunStuff/Page_FunStuff at Penzeys/Page_Spices at Penzeys Fun Stuff/button_Gift Cards""))",Chrome 77.0.3865.120,,2019-12-03 16:28:13,2019-12-03 16:28:13,0.616s,PASSED
delay(5),Chrome 77.0.3865.120,,2019-12-03 16:28:13,2019-12-03 16:28:18,5.004s,PASSED
"click(findTestObject(""FunStuff/Page_FunStuff at Penzeys/Page_Spices at Penzeys Fun Stuff/button_Magnets""))",Chrome 77.0.3865.120,,2019-12-03 16:28:18,2019-12-03 16:28:19,0.736s,PASSED
delay(5),Chrome 77.0.3865.120,,2019-12-03 16:28:19,2019-12-03 16:28:24,5.003s,PASSED
"click(findTestObject(""FunStuff/Page_FunStuff at Penzeys/Page_Spices at Penzeys Fun Stuff/button_Books""))",Chrome 77.0.3865.120,,2019-12-03 16:28:24,2019-12-03 16:28:26,1.928s,PASSED
delay(5),Chrome 77.0.3865.120,,2019-12-03 16:28:26,2019-12-03 16:28:31,5.003s,PASSED
closeBrowser(),Chrome 77.0.3865.120,,2019-12-03 16:28:31,2019-12-03 16:28:51,19.815s,PASSED
,,,,,,
Test Cases/WarmUp-ExpressOrder,Chrome 77.0.3865.120,,2019-12-03 16:28:51,2019-12-03 16:30:44,1m - 53.001s,PASSED
openBrowser(URL),Chrome 77.0.3865.120,,2019-12-03 16:28:51,2019-12-03 16:29:04,12.189s,PASSED
deleteAllCookies(),Chrome 77.0.3865.120,,2019-12-03 16:29:04,2019-12-03 16:29:04,0.185s,PASSED
refresh(),Chrome 77.0.3865.120,,2019-12-03 16:29:04,2019-12-03 16:29:06,1.871s,PASSED
maximizeWindow(),Chrome 77.0.3865.120,,2019-12-03 16:29:06,2019-12-03 16:29:07,1.292s,PASSED
"waitForPageLoad(8000, STOP_ON_FAILURE)",Chrome 77.0.3865.120,,2019-12-03 16:29:07,2019-12-03 16:29:07,0.021s,PASSED
delay(5),Chrome 77.0.3865.120,,2019-12-03 16:29:07,2019-12-03 16:29:12,5.004s,PASSED
"click(findTestObject(""Spices/Page_Spices at Penzeys/Ok_Button""))",Chrome 77.0.3865.120,,2019-12-03 16:29:12,2019-12-03 16:29:12,0.127s,PASSED
"waitForElementPresent(findTestObject(""ExpressOrder/Page_ExpressOrder at Penzeys/Page_Spices at Penzeys/a_Express Order""), 8000)",Chrome 77.0.3865.120,,2019-12-03 16:29:12,2019-12-03 16:29:12,0.032s,PASSED
delay(15),Chrome 77.0.3865.120,,2019-12-03 16:29:12,2019-12-03 16:29:27,15.009s,PASSED
"click(findTestObject(""Object Repository/ExpressOrder/Page_ExpressOrder at Penzeys/Page_Spices at Penzeys/a_Express Order""))",Chrome 77.0.3865.120,,2019-12-03 16:29:27,2019-12-03 16:29:30,2.829s,PASSED
"setText(findTestObject(""Object Repository/ExpressOrder/Page_ExpressOrder at Penzeys/Page_Spices at Penzeys/input_Use the item numbers found in our mail order catalog to place an order quickly._expressItemSkus""), ""46141"")",Chrome 77.0.3865.120,,2019-12-03 16:29:30,2019-12-03 16:29:32,2.142s,PASSED
delay(15),Chrome 77.0.3865.120,,2019-12-03 16:29:32,2019-12-03 16:29:47,15.004s,PASSED
"click(findTestObject(""Object Repository/ExpressOrder/Page_ExpressOrder at Penzeys/Page_Spices at Penzeys/button_Add Item""))",Chrome 77.0.3865.120,,2019-12-03 16:29:47,2019-12-03 16:29:48,0.784s,PASSED
"doubleClick(findTestObject(""Object Repository/ExpressOrder/Page_ExpressOrder at Penzeys/Page_Spices at Penzeys/div_Welcome_overlayBackground""))",Chrome 77.0.3865.120,,2019-12-03 16:29:48,2019-12-03 16:29:48,0.001s,NOT_RUN
closeBrowser(),Chrome 77.0.3865.120,,2019-12-03 16:29:48,2019-12-03 16:30:44,55.822s,PASSED
,,,,,,
Test Cases/WarmUp_Recipes,Chrome 77.0.3865.120,,2019-12-03 16:30:44,2019-12-03 16:33:17,2m - 32.809s,PASSED
openBrowser(URL),Chrome 77.0.3865.120,,2019-12-03 16:30:45,2019-12-03 16:31:10,25.515s,PASSED
"navigateToUrl(""https://penzeystestnc-production3.azurewebsites.net/"")",Chrome 77.0.3865.120,,2019-12-03 16:31:10,2019-12-03 16:31:10,0.001s,NOT_RUN
deleteAllCookies(),Chrome 77.0.3865.120,,2019-12-03 16:31:10,2019-12-03 16:31:11,0.716s,PASSED
refresh(),Chrome 77.0.3865.120,,2019-12-03 16:31:11,2019-12-03 16:31:14,2.764s,PASSED
maximizeWindow(),Chrome 77.0.3865.120,,2019-12-03 16:31:14,2019-12-03 16:31:15,1.369s,PASSED
"waitForPageLoad(8000, STOP_ON_FAILURE)",Chrome 77.0.3865.120,,2019-12-03 16:31:15,2019-12-03 16:31:15,0.016s,PASSED
delay(5),Chrome 77.0.3865.120,,2019-12-03 16:31:15,2019-12-03 16:31:20,5.005s,PASSED
"click(findTestObject(""Spices/Page_Spices at Penzeys/Ok_Button""))",Chrome 77.0.3865.120,,2019-12-03 16:31:20,2019-12-03 16:31:21,0.957s,PASSED
delay(5),Chrome 77.0.3865.120,,2019-12-03 16:31:21,2019-12-03 16:31:26,5.017s,PASSED
"click(findTestObject(""Object Repository/Recipes/Page_Recipes of Penzeys/Page_Spices at Penzeys/a_Recipes""))",Chrome 77.0.3865.120,,2019-12-03 16:31:26,2019-12-03 16:31:30,3.771s,PASSED
delay(5),Chrome 77.0.3865.120,,2019-12-03 16:31:30,2019-12-03 16:31:35,5.003s,PASSED
"click(findTestObject(""Object Repository/Recipes/Page_Recipes of Penzeys/Page_Spices at Penzeys/span_Almond Toffee Tart""))",Chrome 77.0.3865.120,,2019-12-03 16:31:35,2019-12-03 16:31:43,8.093s,PASSED
delay(5),Chrome 77.0.3865.120,,2019-12-03 16:31:43,2019-12-03 16:31:48,5.004s,PASSED
"click(findTestObject(""Object Repository/Recipes/Page_Recipes of Penzeys/Page_Spices at Penzeys/span_Forgot Password _glyphicon glyphicon-remove-circle""))",Chrome 77.0.3865.120,,2019-12-03 16:31:48,2019-12-03 16:31:50,2.078s,PASSED
delay(5),Chrome 77.0.3865.120,,2019-12-03 16:31:50,2019-12-03 16:31:55,5.003s,PASSED
"click(findTestObject(""Object Repository/Recipes/Page_Recipes of Penzeys/Page_Spices at Penzeys/a_Recipes""))",Chrome 77.0.3865.120,,2019-12-03 16:31:55,2019-12-03 16:32:00,4.780s,PASSED
delay(5),Chrome 77.0.3865.120,,2019-12-03 16:32:00,2019-12-03 16:32:05,5.002s,PASSED
"click(findTestObject(""Object Repository/Recipes/Page_Recipes of Penzeys/Page_Spices at Penzeys/span_Meal Type""))",Chrome 77.0.3865.120,,2019-12-03 16:32:05,2019-12-03 16:32:06,1.423s,PASSED
delay(5),Chrome 77.0.3865.120,,2019-12-03 16:32:06,2019-12-03 16:32:11,5.005s,PASSED
"click(findTestObject(""Object Repository/Recipes/Page_Recipes of Penzeys/Page_Spices at Penzeys/a_Dinner""))",Chrome 77.0.3865.120,,2019-12-03 16:32:11,2019-12-03 16:32:12,0.614s,PASSED
delay(5),Chrome 77.0.3865.120,,2019-12-03 16:32:12,2019-12-03 16:32:17,5.003s,PASSED
"click(findTestObject(""Object Repository/Recipes/Page_Recipes of Penzeys/Page_Spices at Penzeys/a_Lunch""))",Chrome 77.0.3865.120,,2019-12-03 16:32:17,2019-12-03 16:32:19,1.574s,PASSED
delay(5),Chrome 77.0.3865.120,,2019-12-03 16:32:19,2019-12-03 16:32:24,5.002s,PASSED
"click(findTestObject(""Object Repository/Recipes/Page_Recipes of Penzeys/Page_Spices at Penzeys/a_BreakfastBrunch""))",Chrome 77.0.3865.120,,2019-12-03 16:32:24,2019-12-03 16:32:24,0.486s,PASSED
delay(5),Chrome 77.0.3865.120,,2019-12-03 16:32:24,2019-12-03 16:32:29,5.003s,PASSED
"click(findTestObject(""Object Repository/Recipes/Page_Recipes of Penzeys/Page_Spices at Penzeys/a_All""))",Chrome 77.0.3865.120,,2019-12-03 16:32:29,2019-12-03 16:32:30,0.865s,PASSED
delay(5),Chrome 77.0.3865.120,,2019-12-03 16:32:30,2019-12-03 16:32:35,5.004s,PASSED
"click(findTestObject(""Object Repository/Recipes/Page_Recipes of Penzeys/Page_Spices at Penzeys/button_Clear facets""))",Chrome 77.0.3865.120,,2019-12-03 16:32:35,2019-12-03 16:32:36,1.393s,PASSED
delay(5),Chrome 77.0.3865.120,,2019-12-03 16:32:36,2019-12-03 16:32:41,5.003s,PASSED
"click(findTestObject(""Object Repository/Recipes/Page_Recipes of Penzeys/Page_Spices at Penzeys/span_Course""))",Chrome 77.0.3865.120,,2019-12-03 16:32:41,2019-12-03 16:32:42,0.926s,PASSED
delay(5),Chrome 77.0.3865.120,,2019-12-03 16:32:42,2019-12-03 16:32:47,5.004s,PASSED
"click(findTestObject(""Object Repository/Recipes/Page_Recipes of Penzeys/Page_Spices at Penzeys/a_Dessert""))",Chrome 77.0.3865.120,,2019-12-03 16:32:47,2019-12-03 16:32:48,0.394s,PASSED
delay(5),Chrome 77.0.3865.120,,2019-12-03 16:32:48,2019-12-03 16:32:53,5.004s,PASSED
closeBrowser(),Chrome 77.0.3865.120,,2019-12-03 16:32:53,2019-12-03 16:33:17,23.887s,PASSED
,,,,,,
Test Cases/WarmUp_OtherPages,Chrome 77.0.3865.120,,2019-12-03 16:33:17,2019-12-03 16:36:09,2m - 52.379s,PASSED
openBrowser(URL),Chrome 77.0.3865.120,,2019-12-03 16:33:17,2019-12-03 16:33:30,12.340s,PASSED
"navigateToUrl(""https://penzeystestnc-production3.azurewebsites.net/"")",Chrome 77.0.3865.120,,2019-12-03 16:33:30,2019-12-03 16:33:30,0.001s,NOT_RUN
deleteAllCookies(),Chrome 77.0.3865.120,,2019-12-03 16:33:30,2019-12-03 16:33:30,0.126s,PASSED
refresh(),Chrome 77.0.3865.120,,2019-12-03 16:33:30,2019-12-03 16:33:30,0.020s,PASSED
maximizeWindow(),Chrome 77.0.3865.120,,2019-12-03 16:33:30,2019-12-03 16:33:31,1.293s,PASSED
"waitForPageLoad(8000, STOP_ON_FAILURE)",Chrome 77.0.3865.120,,2019-12-03 16:33:31,2019-12-03 16:33:31,0.274s,PASSED
delay(5),Chrome 77.0.3865.120,,2019-12-03 16:33:31,2019-12-03 16:33:36,5.003s,PASSED
"click(findTestObject(""Spices/Page_Spices at Penzeys/Ok_Button""))",Chrome 77.0.3865.120,,2019-12-03 16:33:36,2019-12-03 16:33:37,0.615s,PASSED
delay(15),Chrome 77.0.3865.120,,2019-12-03 16:33:37,2019-12-03 16:33:52,15.004s,PASSED
"click(findTestObject(""OtherPages/Page_OtherPages at Penzeys/Page_Spices at Penzeys/img_My Penzeys_facebookicon""))",Chrome 77.0.3865.120,,2019-12-03 16:33:52,2019-12-03 16:33:54,2.356s,PASSED
delay(15),Chrome 77.0.3865.120,,2019-12-03 16:33:54,2019-12-03 16:34:09,15.004s,PASSED
"waitForPageLoad(8000, STOP_ON_FAILURE)",Chrome 77.0.3865.120,,2019-12-03 16:34:09,2019-12-03 16:34:09,0.001s,NOT_RUN
"verifyElementPresent(findTestObject(""OtherPages/Page_OtherPages at Penzeys/Page_Spices at Penzeys/Select_state""), 10)",Chrome 77.0.3865.120,,2019-12-03 16:34:09,2019-12-03 16:34:09,0.001s,NOT_RUN
"selectOptionByValue(findTestObject(""OtherPages/Page_OtherPages at Penzeys/Page_Spices at Penzeys/Select_state""), ""9"", true)",Chrome 77.0.3865.120,,2019-12-03 16:34:09,2019-12-03 16:34:11,1.942s,PASSED
"click(findTestObject(""OtherPages/Page_OtherPages at Penzeys/Page_Spices at Penzeys/Select_state""))",Chrome 77.0.3865.120,,2019-12-03 16:34:11,2019-12-03 16:34:12,0.482s,PASSED
"click(findTestObject(""OtherPages/Page_OtherPages at Penzeys/Page_Spices at Penzeys/a_ Contact us""))",Chrome 77.0.3865.120,,2019-12-03 16:34:12,2019-12-03 16:34:15,3.070s,PASSED
"click(findTestObject(""OtherPages/Page_OtherPages at Penzeys/Page_Spices at Penzeys/span_Forgot Password _glyphicon glyphicon-remove-circle""))",Chrome 77.0.3865.120,,2019-12-03 16:34:15,2019-12-03 16:34:16,1.200s,PASSED
delay(15),Chrome 77.0.3865.120,,2019-12-03 16:34:16,2019-12-03 16:34:31,15.006s,PASSED
"click(findTestObject(""OtherPages/Page_OtherPages at Penzeys/Page_Spices at Penzeys/a_ Return Policy""))",Chrome 77.0.3865.120,,2019-12-03 16:34:31,2019-12-03 16:34:32,1.185s,PASSED
delay(15),Chrome 77.0.3865.120,,2019-12-03 16:34:32,2019-12-03 16:34:47,15.003s,PASSED
"click(findTestObject(""OtherPages/Page_OtherPages at Penzeys/Page_Spices at Penzeys/a_  Shipping Policy""))",Chrome 77.0.3865.120,,2019-12-03 16:34:47,2019-12-03 16:34:49,1.561s,PASSED
delay(15),Chrome 77.0.3865.120,,2019-12-03 16:34:49,2019-12-03 16:35:04,15.007s,PASSED
"click(findTestObject(""OtherPages/Page_OtherPages at Penzeys/Page_Spices at Penzeys/a_ Privacy Policy""))",Chrome 77.0.3865.120,,2019-12-03 16:35:04,2019-12-03 16:35:06,2.285s,PASSED
delay(15),Chrome 77.0.3865.120,,2019-12-03 16:35:06,2019-12-03 16:35:21,15.004s,PASSED
"click(findTestObject(""OtherPages/Page_OtherPages at Penzeys/Page_Spices at Penzeys/a_ Recall Information""))",Chrome 77.0.3865.120,,2019-12-03 16:35:21,2019-12-03 16:35:21,0.308s,PASSED
delay(15),Chrome 77.0.3865.120,,2019-12-03 16:35:21,2019-12-03 16:35:36,15.003s,PASSED
"click(findTestObject(""OtherPages/Page_OtherPages at Penzeys/Page_Spices at Penzeys/a_Careers""))",Chrome 77.0.3865.120,,2019-12-03 16:35:36,2019-12-03 16:35:47,10.335s,PASSED
delay(15),Chrome 77.0.3865.120,,2019-12-03 16:35:47,2019-12-03 16:36:02,15.004s,PASSED
"click(findTestObject(""OtherPages/Page_OtherPages at Penzeys/Page_Spices at Penzeys/a_Stories""))",Chrome 77.0.3865.120,,2019-12-03 16:36:02,2019-12-03 16:36:08,6.304s,PASSED
closeBrowser(),Chrome 77.0.3865.120,,2019-12-03 16:36:08,2019-12-03 16:36:09,0.831s,PASSED
